(export (version D)
  (design
    (source /run/media/mdrobisch/Data/Workspaces/Electronics/rosetronics/rosetronics_MiniKit/rosetronics_MiniKit.sch)
    (date "Fr 09 Aug 2019 17:51:43 CEST")
    (tool "Eeschema 5.1.2")
    (sheet (number 1) (name /) (tstamps /)
      (title_block
        (title)
        (company)
        (rev)
        (date)
        (source rosetronics_MiniKit.sch)
        (comment (number 1) (value ""))
        (comment (number 2) (value ""))
        (comment (number 3) (value ""))
        (comment (number 4) (value ""))))
    (sheet (number 2) (name "/Board Adapter/") (tstamps /5D3B8885/)
      (title_block
        (title)
        (company)
        (rev)
        (date)
        (source rosetronics_MiniKit_adapter.sch)
        (comment (number 1) (value ""))
        (comment (number 2) (value ""))
        (comment (number 3) (value ""))
        (comment (number 4) (value "")))))
  (components
    (comp (ref J3)
      (value PORT)
      (footprint Connector_Dsub:DSUB-15_Male_Vertical_P2.77x2.84mm_MountingHoles)
      (datasheet " ~")
      (libsource (lib Connector) (part DB15_Female) (description "15-pin female D-SUB connector (low-density/2 columns)"))
      (sheetpath (names /) (tstamps /))
      (tstamp 5D37066C))
    (comp (ref J6)
      (value MFRC522)
      (footprint Connector_JST:JST_XH_B8B-XH-A_1x08_P2.50mm_Vertical)
      (datasheet ~)
      (libsource (lib Connector) (part Conn_01x08_Male) (description "Generic connector, single row, 01x08, script generated (kicad-library-utils/schlib/autogen/connector/)"))
      (sheetpath (names /) (tstamps /))
      (tstamp 5D41CBD3))
    (comp (ref U3)
      (value L7805)
      (footprint Package_TO_SOT_THT:TO-220-3_Vertical)
      (datasheet http://www.st.com/content/ccc/resource/technical/document/datasheet/41/4f/b3/b0/12/d4/47/88/CD00000444.pdf/files/CD00000444.pdf/jcr:content/translations/en.CD00000444.pdf)
      (libsource (lib Regulator_Linear) (part L7805) (description "Positive 1.5A 35V Linear Regulator, Fixed Output 5V, TO-220/TO-263/TO-252"))
      (sheetpath (names /) (tstamps /))
      (tstamp 5D430F31))
    (comp (ref JP4)
      (value JUMPER_POWER)
      (footprint Connector_PinHeader_2.54mm:PinHeader_1x02_P2.54mm_Vertical)
      (datasheet ~)
      (libsource (lib Device) (part Jumper_NC_Small) (description "Jumper, normally closed, small symbol"))
      (sheetpath (names /) (tstamps /))
      (tstamp 5D40D7FD))
    (comp (ref J9)
      (value "PIO RM3.81")
      (footprint Connector_Phoenix_MC:PhoenixContact_MCV_1,5_8-G-3.81_1x08_P3.81mm_Vertical)
      (datasheet ~)
      (libsource (lib Connector) (part Screw_Terminal_01x08) (description "Generic screw terminal, single row, 01x08, script generated (kicad-library-utils/schlib/autogen/connector/)"))
      (sheetpath (names /) (tstamps /))
      (tstamp 5D40639E))
    (comp (ref R12)
      (value 3K)
      (footprint Resistors:R_0805_2012Metric_Pad1.15x1.40mm_HandSolder)
      (datasheet ~)
      (libsource (lib Device) (part R) (description Resistor))
      (sheetpath (names /) (tstamps /))
      (tstamp 5D3DE377))
    (comp (ref R8)
      (value 22K)
      (footprint Resistors:R_0805_2012Metric_Pad1.15x1.40mm_HandSolder)
      (datasheet ~)
      (libsource (lib Device) (part R) (description Resistor))
      (sheetpath (names /) (tstamps /))
      (tstamp 5D3DE1C9))
    (comp (ref R11)
      (value 3K)
      (footprint Resistors:R_0805_2012Metric_Pad1.15x1.40mm_HandSolder)
      (datasheet ~)
      (libsource (lib Device) (part R) (description Resistor))
      (sheetpath (names /) (tstamps /))
      (tstamp 5D3DD7DC))
    (comp (ref R7)
      (value 22K)
      (footprint Resistors:R_0805_2012Metric_Pad1.15x1.40mm_HandSolder)
      (datasheet ~)
      (libsource (lib Device) (part R) (description Resistor))
      (sheetpath (names /) (tstamps /))
      (tstamp 5D3DC99B))
    (comp (ref R5)
      (value 4K7)
      (footprint Resistors:R_0805_2012Metric_Pad1.15x1.40mm_HandSolder)
      (datasheet ~)
      (libsource (lib Device) (part R) (description Resistor))
      (sheetpath (names /) (tstamps /))
      (tstamp 5D3D38F4))
    (comp (ref R6)
      (value 4K7)
      (footprint Resistors:R_0805_2012Metric_Pad1.15x1.40mm_HandSolder)
      (datasheet ~)
      (libsource (lib Device) (part R) (description Resistor))
      (sheetpath (names /) (tstamps /))
      (tstamp 5D3D33D7))
    (comp (ref D2)
      (value LED)
      (footprint Diode_SMD:D_0805_2012Metric_Pad1.15x1.40mm_HandSolder)
      (datasheet ~)
      (libsource (lib Device) (part LED) (description "Light emitting diode"))
      (sheetpath (names /) (tstamps /))
      (tstamp 5D3D0F54))
    (comp (ref D1)
      (value LED)
      (footprint Diode_SMD:D_0805_2012Metric_Pad1.15x1.40mm_HandSolder)
      (datasheet ~)
      (libsource (lib Device) (part LED) (description "Light emitting diode"))
      (sheetpath (names /) (tstamps /))
      (tstamp 5D3CF47F))
    (comp (ref Q1)
      (value IRLZ44N)
      (footprint Package_TO_SOT_THT:TO-220-3_Vertical)
      (datasheet ~)
      (libsource (lib Device) (part Q_NMOS_GDS) (description "N-MOSFET transistor, gate/drain/source"))
      (sheetpath (names /) (tstamps /))
      (tstamp 5D3A1122))
    (comp (ref D4)
      (value 1N4004)
      (footprint Diode_SMD:D_SMA-SMB_Universal_Handsoldering)
      (datasheet ~)
      (libsource (lib Device) (part D) (description Diode))
      (sheetpath (names /) (tstamps /))
      (tstamp 5D3B7FB9))
    (comp (ref D5)
      (value 1N4004)
      (footprint Diode_SMD:D_SMA-SMB_Universal_Handsoldering)
      (datasheet ~)
      (libsource (lib Device) (part D) (description Diode))
      (sheetpath (names /) (tstamps /))
      (tstamp 5D3B5919))
    (comp (ref J7)
      (value PWR_Jack)
      (footprint Connector_JST:JST_XH_B2B-XH-A_1x02_P2.50mm_Vertical)
      (datasheet ~)
      (libsource (lib Connector) (part Barrel_Jack) (description "DC Barrel Jack"))
      (sheetpath (names /) (tstamps /))
      (tstamp 5D36FECB))
    (comp (ref C3)
      (value 100µF)
      (footprint Capacitor_SMD:CP_Elec_6.3x5.9)
      (datasheet ~)
      (libsource (lib Device) (part C) (description "Unpolarized capacitor"))
      (sheetpath (names /) (tstamps /))
      (tstamp 5D449BCD))
    (comp (ref D3)
      (value 1N4004)
      (footprint Diode_SMD:D_SMA-SMB_Universal_Handsoldering)
      (datasheet ~)
      (libsource (lib Device) (part D) (description Diode))
      (sheetpath (names /) (tstamps /))
      (tstamp 5D4574AE))
    (comp (ref J1)
      (value RDM6300_B)
      (footprint Connector_JST:JST_XH_B3B-XH-A_1x03_P2.50mm_Vertical)
      (datasheet ~)
      (libsource (lib Connector) (part Conn_01x03_Male) (description "Generic connector, single row, 01x03, script generated (kicad-library-utils/schlib/autogen/connector/)"))
      (sheetpath (names /) (tstamps /))
      (tstamp 5D48D439))
    (comp (ref J2)
      (value RDM6300_A)
      (footprint Connector_JST:JST_XH_B3B-XH-A_1x03_P2.50mm_Vertical)
      (datasheet ~)
      (libsource (lib Connector) (part Conn_01x03_Male) (description "Generic connector, single row, 01x03, script generated (kicad-library-utils/schlib/autogen/connector/)"))
      (sheetpath (names /) (tstamps /))
      (tstamp 5D48DFD1))
    (comp (ref R4)
      (value 10K)
      (footprint Resistors:R_0805_2012Metric_Pad1.15x1.40mm_HandSolder)
      (datasheet ~)
      (libsource (lib Device) (part R) (description Resistor))
      (sheetpath (names /) (tstamps /))
      (tstamp 5D4A4FAD))
    (comp (ref R3)
      (value 10K)
      (footprint Resistors:R_0805_2012Metric_Pad1.15x1.40mm_HandSolder)
      (datasheet ~)
      (libsource (lib Device) (part R) (description Resistor))
      (sheetpath (names /) (tstamps /))
      (tstamp 5D4B18F7))
    (comp (ref R9)
      (value 10K)
      (footprint Resistors:R_0805_2012Metric_Pad1.15x1.40mm_HandSolder)
      (datasheet ~)
      (libsource (lib Device) (part R) (description Resistor))
      (sheetpath (names /) (tstamps /))
      (tstamp 5D4B22C0))
    (comp (ref R10)
      (value 10K)
      (footprint Resistors:R_0805_2012Metric_Pad1.15x1.40mm_HandSolder)
      (datasheet ~)
      (libsource (lib Device) (part R) (description Resistor))
      (sheetpath (names /) (tstamps /))
      (tstamp 5D4B2853))
    (comp (ref U5)
      (value "UEXT_Socket (Display)")
      (footprint Connector_Samtec_HLE_THT:Samtec_HLE-105-02-xx-DV-TE_2x05_P2.54mm_Horizontal)
      (datasheet https://www.olimex.com)
      (libsource (lib rosetronics_v1) (part UEXT_Socket) (description "Highly integrated ESP32 Module"))
      (sheetpath (names /) (tstamps /))
      (tstamp 5D4FCEC3))
    (comp (ref U2)
      (value ESP32MiniKit_Socket)
      (footprint rosetronics_v1:ESP32_MiniKit_Shield)
      (datasheet https://www.bastelgarage.ch/esp32minikit-wemos)
      (libsource (lib rosetronics_v1) (part ESP32MiniKit_Socket) (description "Highly integrated ESP32 Module"))
      (sheetpath (names /) (tstamps /))
      (tstamp 5D3BCC31))
    (comp (ref R22)
      (value 2K2)
      (footprint Resistors:R_0805_2012Metric_Pad1.15x1.40mm_HandSolder)
      (datasheet ~)
      (libsource (lib Device) (part R) (description Resistor))
      (sheetpath (names /) (tstamps /))
      (tstamp 5D3E1484))
    (comp (ref R23)
      (value 10K)
      (footprint Resistors:R_0805_2012Metric_Pad1.15x1.40mm_HandSolder)
      (datasheet ~)
      (libsource (lib Device) (part R) (description Resistor))
      (sheetpath (names /) (tstamps /))
      (tstamp 5D3E25C3))
    (comp (ref R24)
      (value 10K)
      (footprint Resistors:R_0805_2012Metric_Pad1.15x1.40mm_HandSolder)
      (datasheet ~)
      (libsource (lib Device) (part R) (description Resistor))
      (sheetpath (names /) (tstamps /))
      (tstamp 5D3E3C94))
    (comp (ref R20)
      (value 2K2)
      (footprint Resistors:R_0805_2012Metric_Pad1.15x1.40mm_HandSolder)
      (datasheet ~)
      (libsource (lib Device) (part R) (description Resistor))
      (sheetpath (names /) (tstamps /))
      (tstamp 5D3E602C))
    (comp (ref U4)
      (value LM2937xMP)
      (footprint Package_TO_SOT_SMD:SOT-223-3_TabPin2)
      (datasheet http://www.ti.com/lit/ds/symlink/lm2937.pdf)
      (libsource (lib Regulator_Linear) (part LM2937xMP) (description "500-mA Low Dropout Regulator, SOT-223"))
      (sheetpath (names /) (tstamps /))
      (tstamp 5D59E7AA))
    (comp (ref C2)
      (value 10µF)
      (footprint Capacitor_SMD:C_1206_3216Metric_Pad1.42x1.75mm_HandSolder)
      (datasheet ~)
      (libsource (lib Device) (part C) (description "Unpolarized capacitor"))
      (sheetpath (names /) (tstamps /))
      (tstamp 5D59F991))
    (comp (ref C4)
      (value 100µF)
      (footprint Capacitor_SMD:CP_Elec_6.3x5.9)
      (datasheet ~)
      (libsource (lib Device) (part C) (description "Unpolarized capacitor"))
      (sheetpath (names /) (tstamps /))
      (tstamp 5D5A004F))
    (comp (ref JP3)
      (value JUMPER_POWER)
      (footprint Connector_PinHeader_2.54mm:PinHeader_1x02_P2.54mm_Vertical)
      (datasheet ~)
      (libsource (lib Device) (part Jumper_NC_Small) (description "Jumper, normally closed, small symbol"))
      (sheetpath (names /) (tstamps /))
      (tstamp 5D5A1995))
    (comp (ref J10)
      (value "PIO RM3.5")
      (footprint Connector_Wago:Wago_734-138_1x08_P3.50mm_Vertical)
      (datasheet ~)
      (libsource (lib Connector) (part Screw_Terminal_01x08) (description "Generic screw terminal, single row, 01x08, script generated (kicad-library-utils/schlib/autogen/connector/)"))
      (sheetpath (names /) (tstamps /))
      (tstamp 5D473F48))
    (comp (ref J4)
      (value "EXT A")
      (footprint Connector_JST:JST_XH_B5B-XH-A_1x05_P2.50mm_Vertical)
      (datasheet ~)
      (libsource (lib Connector) (part Conn_01x05_Male) (description "Generic connector, single row, 01x05, script generated (kicad-library-utils/schlib/autogen/connector/)"))
      (sheetpath (names /) (tstamps /))
      (tstamp 5D535FE6))
    (comp (ref J5)
      (value "EXT B")
      (footprint Connector_JST:JST_XH_B5B-XH-A_1x05_P2.50mm_Vertical)
      (datasheet ~)
      (libsource (lib Connector) (part Conn_01x05_Male) (description "Generic connector, single row, 01x05, script generated (kicad-library-utils/schlib/autogen/connector/)"))
      (sheetpath (names /) (tstamps /))
      (tstamp 5D53735F))
    (comp (ref JP1)
      (value JUMPER_POWER)
      (footprint Connector_PinHeader_2.54mm:PinHeader_1x02_P2.54mm_Vertical)
      (datasheet ~)
      (libsource (lib Device) (part Jumper_NC_Small) (description "Jumper, normally closed, small symbol"))
      (sheetpath (names /) (tstamps /))
      (tstamp 5D8CE5D5))
    (comp (ref R13)
      (value 0R)
      (footprint Resistors:R_0805_2012Metric_Pad1.15x1.40mm_HandSolder)
      (datasheet ~)
      (libsource (lib Device) (part R_Small) (description "Resistor, small symbol"))
      (sheetpath (names /) (tstamps /))
      (tstamp 5DD9413D))
    (comp (ref R14)
      (value 0R)
      (footprint Resistors:R_0805_2012Metric_Pad1.15x1.40mm_HandSolder)
      (datasheet ~)
      (libsource (lib Device) (part R_Small) (description "Resistor, small symbol"))
      (sheetpath (names /) (tstamps /))
      (tstamp 5DDA3C86))
    (comp (ref R15)
      (value 0R)
      (footprint Resistors:R_0805_2012Metric_Pad1.15x1.40mm_HandSolder)
      (datasheet ~)
      (libsource (lib Device) (part R_Small) (description "Resistor, small symbol"))
      (sheetpath (names /) (tstamps /))
      (tstamp 5DEDF51B))
    (comp (ref R16)
      (value 0R)
      (footprint Resistors:R_0805_2012Metric_Pad1.15x1.40mm_HandSolder)
      (datasheet ~)
      (libsource (lib Device) (part R_Small) (description "Resistor, small symbol"))
      (sheetpath (names /) (tstamps /))
      (tstamp 5DEDF521))
    (comp (ref R17)
      (value 0R)
      (footprint Resistors:R_0805_2012Metric_Pad1.15x1.40mm_HandSolder)
      (datasheet ~)
      (libsource (lib Device) (part R_Small) (description "Resistor, small symbol"))
      (sheetpath (names /) (tstamps /))
      (tstamp 5E2EDE69))
    (comp (ref H2)
      (value MountingHole)
      (footprint MountingHole:MountingHole_2.2mm_M2_Pad_Via)
      (datasheet ~)
      (libsource (lib Mechanical) (part MountingHole) (description "Mounting Hole without connection"))
      (sheetpath (names /) (tstamps /))
      (tstamp 5EB6DE0D))
    (comp (ref H4)
      (value MountingHole)
      (footprint MountingHole:MountingHole_2.2mm_M2_Pad_Via)
      (datasheet ~)
      (libsource (lib Mechanical) (part MountingHole) (description "Mounting Hole without connection"))
      (sheetpath (names /) (tstamps /))
      (tstamp 5EB6DFEE))
    (comp (ref H3)
      (value MountingHole)
      (footprint MountingHole:MountingHole_2.2mm_M2_Pad_Via)
      (datasheet ~)
      (libsource (lib Mechanical) (part MountingHole) (description "Mounting Hole without connection"))
      (sheetpath (names /) (tstamps /))
      (tstamp 5EB6E25B))
    (comp (ref R21)
      (value 100R)
      (footprint Resistors:R_0805_2012Metric_Pad1.15x1.40mm_HandSolder)
      (datasheet ~)
      (libsource (lib Device) (part R_Small) (description "Resistor, small symbol"))
      (sheetpath (names /) (tstamps /))
      (tstamp 5ECBE841))
    (comp (ref Q2)
      (value IRLZ44N)
      (footprint Package_TO_SOT_THT:TO-220-3_Vertical)
      (datasheet ~)
      (libsource (lib Device) (part Q_NMOS_GDS) (description "N-MOSFET transistor, gate/drain/source"))
      (sheetpath (names /) (tstamps /))
      (tstamp 5D3A33BB))
    (comp (ref R30)
      (value 22K)
      (footprint Resistors:R_0805_2012Metric_Pad1.15x1.40mm_HandSolder)
      (datasheet ~)
      (libsource (lib Device) (part R_Small) (description "Resistor, small symbol"))
      (sheetpath (names /) (tstamps /))
      (tstamp 5ECBF710))
    (comp (ref R19)
      (value 22K)
      (footprint Resistors:R_0805_2012Metric_Pad1.15x1.40mm_HandSolder)
      (datasheet ~)
      (libsource (lib Device) (part R_Small) (description "Resistor, small symbol"))
      (sheetpath (names /) (tstamps /))
      (tstamp 5ED9239B))
    (comp (ref R18)
      (value 100R)
      (footprint Resistors:R_0805_2012Metric_Pad1.15x1.40mm_HandSolder)
      (datasheet ~)
      (libsource (lib Device) (part R_Small) (description "Resistor, small symbol"))
      (sheetpath (names /) (tstamps /))
      (tstamp 5ED9291A))
    (comp (ref C1)
      (value 10µF)
      (footprint Capacitor_SMD:C_1206_3216Metric_Pad1.42x1.75mm_HandSolder)
      (datasheet ~)
      (libsource (lib Device) (part C) (description "Unpolarized capacitor"))
      (sheetpath (names /) (tstamps /))
      (tstamp 5D45E3E6))
    (comp (ref R29)
      (value 47K)
      (footprint Resistors:R_0805_2012Metric_Pad1.15x1.40mm_HandSolder)
      (datasheet ~)
      (libsource (lib Device) (part R_Small) (description "Resistor, small symbol"))
      (sheetpath (names /) (tstamps /))
      (tstamp 5D78DB2C))
    (comp (ref R28)
      (value 47K)
      (footprint Resistors:R_0805_2012Metric_Pad1.15x1.40mm_HandSolder)
      (datasheet ~)
      (libsource (lib Device) (part R_Small) (description "Resistor, small symbol"))
      (sheetpath (names /) (tstamps /))
      (tstamp 5D78EBA7))
    (comp (ref J14)
      (value PORT)
      (footprint Connector_Dsub:DSUB-15_Male_Vertical_P2.77x2.84mm_MountingHoles)
      (datasheet " ~")
      (libsource (lib Connector) (part DB15_Female) (description "15-pin female D-SUB connector (low-density/2 columns)"))
      (sheetpath (names "/Board Adapter/") (tstamps /5D3B8885/))
      (tstamp 5D611691))
    (comp (ref U6)
      (value "UEXT_Socket (Display)")
      (footprint Connector_Samtec_HLE_THT:Samtec_HLE-105-02-xx-DV-TE_2x05_P2.54mm_Horizontal)
      (datasheet https://www.olimex.com)
      (libsource (lib rosetronics_v1) (part UEXT_Socket) (description "Highly integrated ESP32 Module"))
      (sheetpath (names "/Board Adapter/") (tstamps /5D3B8885/))
      (tstamp 5D617FBF))
    (comp (ref C12)
      (value 470nF)
      (footprint Capacitor_SMD:C_0805_2012Metric_Pad1.15x1.40mm_HandSolder)
      (datasheet ~)
      (libsource (lib Device) (part C_Small) (description "Unpolarized capacitor, small symbol"))
      (sheetpath (names "/Board Adapter/") (tstamps /5D3B8885/))
      (tstamp 5D69C22B))
    (comp (ref C10)
      (value 10µF)
      (footprint Capacitor_SMD:C_0805_2012Metric_Pad1.15x1.40mm_HandSolder)
      (datasheet ~)
      (libsource (lib Device) (part C_Small) (description "Unpolarized capacitor, small symbol"))
      (sheetpath (names "/Board Adapter/") (tstamps /5D3B8885/))
      (tstamp 5D69CEB8))
    (comp (ref C8)
      (value 100µF)
      (footprint Capacitor_SMD:CP_Elec_6.3x5.9)
      (datasheet ~)
      (libsource (lib Device) (part C_Small) (description "Unpolarized capacitor, small symbol"))
      (sheetpath (names "/Board Adapter/") (tstamps /5D3B8885/))
      (tstamp 5D69D1E9))
    (comp (ref C13)
      (value 470nF)
      (footprint Capacitor_SMD:C_0805_2012Metric_Pad1.15x1.40mm_HandSolder)
      (datasheet ~)
      (libsource (lib Device) (part C_Small) (description "Unpolarized capacitor, small symbol"))
      (sheetpath (names "/Board Adapter/") (tstamps /5D3B8885/))
      (tstamp 5D6A6A4A))
    (comp (ref C11)
      (value 10µF)
      (footprint Capacitor_SMD:C_0805_2012Metric_Pad1.15x1.40mm_HandSolder)
      (datasheet ~)
      (libsource (lib Device) (part C_Small) (description "Unpolarized capacitor, small symbol"))
      (sheetpath (names "/Board Adapter/") (tstamps /5D3B8885/))
      (tstamp 5D6A6A50))
    (comp (ref C9)
      (value 100µF)
      (footprint Capacitor_SMD:CP_Elec_6.3x5.9)
      (datasheet ~)
      (libsource (lib Device) (part C_Small) (description "Unpolarized capacitor, small symbol"))
      (sheetpath (names "/Board Adapter/") (tstamps /5D3B8885/))
      (tstamp 5D6A6A56))
    (comp (ref J11)
      (value MFRC522)
      (footprint Connector_JST:JST_XH_B8B-XH-A_1x08_P2.50mm_Vertical)
      (datasheet ~)
      (libsource (lib Connector) (part Conn_01x08_Male) (description "Generic connector, single row, 01x08, script generated (kicad-library-utils/schlib/autogen/connector/)"))
      (sheetpath (names "/Board Adapter/") (tstamps /5D3B8885/))
      (tstamp 5D6B6785))
    (comp (ref J12)
      (value "EXT A")
      (footprint Connector_JST:JST_XH_B5B-XH-A_1x05_P2.50mm_Vertical)
      (datasheet ~)
      (libsource (lib Connector) (part Conn_01x05_Male) (description "Generic connector, single row, 01x05, script generated (kicad-library-utils/schlib/autogen/connector/)"))
      (sheetpath (names "/Board Adapter/") (tstamps /5D3B8885/))
      (tstamp 5D6BDE57))
    (comp (ref C6)
      (value 2.2µF)
      (footprint Capacitor_SMD:C_0805_2012Metric_Pad1.15x1.40mm_HandSolder)
      (datasheet ~)
      (libsource (lib Device) (part C_Small) (description "Unpolarized capacitor, small symbol"))
      (sheetpath (names "/Board Adapter/") (tstamps /5D3B8885/))
      (tstamp 5D6D7182))
    (comp (ref C5)
      (value 2.2µF)
      (footprint Capacitor_SMD:C_0805_2012Metric_Pad1.15x1.40mm_HandSolder)
      (datasheet ~)
      (libsource (lib Device) (part C_Small) (description "Unpolarized capacitor, small symbol"))
      (sheetpath (names "/Board Adapter/") (tstamps /5D3B8885/))
      (tstamp 5D6D7B38))
    (comp (ref J8)
      (value "EXT 5V")
      (footprint Connector_JST:JST_XH_B3B-XH-A_1x03_P2.50mm_Vertical)
      (datasheet ~)
      (libsource (lib Connector) (part Conn_01x03_Male) (description "Generic connector, single row, 01x03, script generated (kicad-library-utils/schlib/autogen/connector/)"))
      (sheetpath (names "/Board Adapter/") (tstamps /5D3B8885/))
      (tstamp 5D6E70BF))
    (comp (ref R2)
      (value 0R)
      (footprint Resistors:R_0805_2012Metric_Pad1.15x1.40mm_HandSolder)
      (datasheet ~)
      (libsource (lib Device) (part R_Small) (description "Resistor, small symbol"))
      (sheetpath (names "/Board Adapter/") (tstamps /5D3B8885/))
      (tstamp 5D6EAA83))
    (comp (ref R25)
      (value 0R)
      (footprint Resistors:R_0805_2012Metric_Pad1.15x1.40mm_HandSolder)
      (datasheet ~)
      (libsource (lib Device) (part R_Small) (description "Resistor, small symbol"))
      (sheetpath (names "/Board Adapter/") (tstamps /5D3B8885/))
      (tstamp 5D6EB498))
    (comp (ref C7)
      (value 2.2µF)
      (footprint Capacitor_SMD:C_0805_2012Metric_Pad1.15x1.40mm_HandSolder)
      (datasheet ~)
      (libsource (lib Device) (part C_Small) (description "Unpolarized capacitor, small symbol"))
      (sheetpath (names "/Board Adapter/") (tstamps /5D3B8885/))
      (tstamp 5D6F83F8))
    (comp (ref R26)
      (value 0R)
      (footprint Resistors:R_0805_2012Metric_Pad1.15x1.40mm_HandSolder)
      (datasheet ~)
      (libsource (lib Device) (part R_Small) (description "Resistor, small symbol"))
      (sheetpath (names "/Board Adapter/") (tstamps /5D3B8885/))
      (tstamp 5D741181))
    (comp (ref R27)
      (value 0R)
      (footprint Resistors:R_0805_2012Metric_Pad1.15x1.40mm_HandSolder)
      (datasheet ~)
      (libsource (lib Device) (part R_Small) (description "Resistor, small symbol"))
      (sheetpath (names "/Board Adapter/") (tstamps /5D3B8885/))
      (tstamp 5D746E76))
    (comp (ref R1)
      (value 0R)
      (footprint Resistors:R_0805_2012Metric_Pad1.15x1.40mm_HandSolder)
      (datasheet ~)
      (libsource (lib Device) (part R_Small) (description "Resistor, small symbol"))
      (sheetpath (names "/Board Adapter/") (tstamps /5D3B8885/))
      (tstamp 5D7696E6))
    (comp (ref TP1)
      (value TestPoint)
      (footprint Connector_Pin:Pin_D1.0mm_L10.0mm_LooseFit)
      (datasheet ~)
      (libsource (lib Connector) (part TestPoint) (description "test point"))
      (sheetpath (names "/Board Adapter/") (tstamps /5D3B8885/))
      (tstamp 5DD797E6))
    (comp (ref TP2)
      (value TestPoint)
      (footprint Connector_Pin:Pin_D1.0mm_L10.0mm_LooseFit)
      (datasheet ~)
      (libsource (lib Connector) (part TestPoint) (description "test point"))
      (sheetpath (names "/Board Adapter/") (tstamps /5D3B8885/))
      (tstamp 5DD7A538))
    (comp (ref TP3)
      (value TestPoint)
      (footprint Connector_Pin:Pin_D1.0mm_L10.0mm_LooseFit)
      (datasheet ~)
      (libsource (lib Connector) (part TestPoint) (description "test point"))
      (sheetpath (names "/Board Adapter/") (tstamps /5D3B8885/))
      (tstamp 5DD7A767))
    (comp (ref H5)
      (value MountingHole)
      (footprint MountingHole:MountingHole_2.2mm_M2_Pad_Via)
      (datasheet ~)
      (libsource (lib Mechanical) (part MountingHole) (description "Mounting Hole without connection"))
      (sheetpath (names "/Board Adapter/") (tstamps /5D3B8885/))
      (tstamp 5EB8C124))
    (comp (ref H8)
      (value MountingHole)
      (footprint MountingHole:MountingHole_2.2mm_M2_Pad_Via)
      (datasheet ~)
      (libsource (lib Mechanical) (part MountingHole) (description "Mounting Hole without connection"))
      (sheetpath (names "/Board Adapter/") (tstamps /5D3B8885/))
      (tstamp 5EB8C130)))
  (libparts
    (libpart (lib Connector) (part Barrel_Jack)
      (aliases
        (alias Jack-DC))
      (description "DC Barrel Jack")
      (docs ~)
      (footprints
        (fp BarrelJack*))
      (fields
        (field (name Reference) J)
        (field (name Value) Barrel_Jack))
      (pins
        (pin (num 1) (name ~) (type passive))
        (pin (num 2) (name ~) (type passive))))
    (libpart (lib Connector) (part Conn_01x03_Male)
      (description "Generic connector, single row, 01x03, script generated (kicad-library-utils/schlib/autogen/connector/)")
      (docs ~)
      (footprints
        (fp Connector*:*_1x??_*))
      (fields
        (field (name Reference) J)
        (field (name Value) Conn_01x03_Male))
      (pins
        (pin (num 1) (name Pin_1) (type passive))
        (pin (num 2) (name Pin_2) (type passive))
        (pin (num 3) (name Pin_3) (type passive))))
    (libpart (lib Connector) (part Conn_01x05_Male)
      (description "Generic connector, single row, 01x05, script generated (kicad-library-utils/schlib/autogen/connector/)")
      (docs ~)
      (footprints
        (fp Connector*:*_1x??_*))
      (fields
        (field (name Reference) J)
        (field (name Value) Conn_01x05_Male))
      (pins
        (pin (num 1) (name Pin_1) (type passive))
        (pin (num 2) (name Pin_2) (type passive))
        (pin (num 3) (name Pin_3) (type passive))
        (pin (num 4) (name Pin_4) (type passive))
        (pin (num 5) (name Pin_5) (type passive))))
    (libpart (lib Connector) (part Conn_01x08_Male)
      (description "Generic connector, single row, 01x08, script generated (kicad-library-utils/schlib/autogen/connector/)")
      (docs ~)
      (footprints
        (fp Connector*:*_1x??_*))
      (fields
        (field (name Reference) J)
        (field (name Value) Conn_01x08_Male))
      (pins
        (pin (num 1) (name Pin_1) (type passive))
        (pin (num 2) (name Pin_2) (type passive))
        (pin (num 3) (name Pin_3) (type passive))
        (pin (num 4) (name Pin_4) (type passive))
        (pin (num 5) (name Pin_5) (type passive))
        (pin (num 6) (name Pin_6) (type passive))
        (pin (num 7) (name Pin_7) (type passive))
        (pin (num 8) (name Pin_8) (type passive))))
    (libpart (lib Connector) (part DB15_Female)
      (description "15-pin female D-SUB connector (low-density/2 columns)")
      (docs " ~")
      (footprints
        (fp DSUB*Female*))
      (fields
        (field (name Reference) J)
        (field (name Value) DB15_Female))
      (pins
        (pin (num 1) (name 1) (type passive))
        (pin (num 2) (name 2) (type passive))
        (pin (num 3) (name 3) (type passive))
        (pin (num 4) (name 4) (type passive))
        (pin (num 5) (name 5) (type passive))
        (pin (num 6) (name 6) (type passive))
        (pin (num 7) (name 7) (type passive))
        (pin (num 8) (name 8) (type passive))
        (pin (num 9) (name P9) (type passive))
        (pin (num 10) (name P10) (type passive))
        (pin (num 11) (name P111) (type passive))
        (pin (num 12) (name P12) (type passive))
        (pin (num 13) (name P13) (type passive))
        (pin (num 14) (name P14) (type passive))
        (pin (num 15) (name P15) (type passive))))
    (libpart (lib Connector) (part Screw_Terminal_01x08)
      (description "Generic screw terminal, single row, 01x08, script generated (kicad-library-utils/schlib/autogen/connector/)")
      (docs ~)
      (footprints
        (fp TerminalBlock*:*))
      (fields
        (field (name Reference) J)
        (field (name Value) Screw_Terminal_01x08))
      (pins
        (pin (num 1) (name Pin_1) (type passive))
        (pin (num 2) (name Pin_2) (type passive))
        (pin (num 3) (name Pin_3) (type passive))
        (pin (num 4) (name Pin_4) (type passive))
        (pin (num 5) (name Pin_5) (type passive))
        (pin (num 6) (name Pin_6) (type passive))
        (pin (num 7) (name Pin_7) (type passive))
        (pin (num 8) (name Pin_8) (type passive))))
    (libpart (lib Connector) (part TestPoint)
      (description "test point")
      (docs ~)
      (footprints
        (fp Pin*)
        (fp Test*))
      (fields
        (field (name Reference) TP)
        (field (name Value) TestPoint))
      (pins
        (pin (num 1) (name 1) (type passive))))
    (libpart (lib Device) (part C)
      (description "Unpolarized capacitor")
      (docs ~)
      (footprints
        (fp C_*))
      (fields
        (field (name Reference) C)
        (field (name Value) C))
      (pins
        (pin (num 1) (name ~) (type passive))
        (pin (num 2) (name ~) (type passive))))
    (libpart (lib Device) (part C_Small)
      (description "Unpolarized capacitor, small symbol")
      (docs ~)
      (footprints
        (fp C_*))
      (fields
        (field (name Reference) C)
        (field (name Value) C_Small))
      (pins
        (pin (num 1) (name ~) (type passive))
        (pin (num 2) (name ~) (type passive))))
    (libpart (lib Device) (part D)
      (description Diode)
      (docs ~)
      (footprints
        (fp TO-???*)
        (fp *_Diode_*)
        (fp *SingleDiode*)
        (fp D_*))
      (fields
        (field (name Reference) D)
        (field (name Value) D))
      (pins
        (pin (num 1) (name K) (type passive))
        (pin (num 2) (name A) (type passive))))
    (libpart (lib Device) (part Jumper_NC_Small)
      (description "Jumper, normally closed, small symbol")
      (docs ~)
      (footprints
        (fp SolderJumper*Bridged*))
      (fields
        (field (name Reference) JP)
        (field (name Value) Jumper_NC_Small))
      (pins
        (pin (num 1) (name 1) (type passive))
        (pin (num 2) (name 2) (type passive))))
    (libpart (lib Device) (part LED)
      (description "Light emitting diode")
      (docs ~)
      (footprints
        (fp LED*)
        (fp LED_SMD:*)
        (fp LED_THT:*))
      (fields
        (field (name Reference) D)
        (field (name Value) LED))
      (pins
        (pin (num 1) (name K) (type passive))
        (pin (num 2) (name A) (type passive))))
    (libpart (lib Device) (part Q_NMOS_GDS)
      (description "N-MOSFET transistor, gate/drain/source")
      (docs ~)
      (fields
        (field (name Reference) Q)
        (field (name Value) Q_NMOS_GDS))
      (pins
        (pin (num 1) (name G) (type input))
        (pin (num 2) (name D) (type passive))
        (pin (num 3) (name S) (type passive))))
    (libpart (lib Device) (part R)
      (description Resistor)
      (docs ~)
      (footprints
        (fp R_*))
      (fields
        (field (name Reference) R)
        (field (name Value) R))
      (pins
        (pin (num 1) (name ~) (type passive))
        (pin (num 2) (name ~) (type passive))))
    (libpart (lib Device) (part R_Small)
      (description "Resistor, small symbol")
      (docs ~)
      (footprints
        (fp R_*))
      (fields
        (field (name Reference) R)
        (field (name Value) R_Small))
      (pins
        (pin (num 1) (name ~) (type passive))
        (pin (num 2) (name ~) (type passive))))
    (libpart (lib Mechanical) (part MountingHole)
      (description "Mounting Hole without connection")
      (docs ~)
      (footprints
        (fp MountingHole*))
      (fields
        (field (name Reference) H)
        (field (name Value) MountingHole)))
    (libpart (lib Regulator_Linear) (part L7805)
      (aliases
        (alias L7806)
        (alias L7808)
        (alias L7885)
        (alias L7809)
        (alias L7812)
        (alias L7815)
        (alias L7818)
        (alias L7824))
      (description "Positive 1.5A 35V Linear Regulator, Fixed Output 5V, TO-220/TO-263/TO-252")
      (docs http://www.st.com/content/ccc/resource/technical/document/datasheet/41/4f/b3/b0/12/d4/47/88/CD00000444.pdf/files/CD00000444.pdf/jcr:content/translations/en.CD00000444.pdf)
      (footprints
        (fp TO?252*)
        (fp TO?263*)
        (fp TO?220*))
      (fields
        (field (name Reference) U)
        (field (name Value) L7805))
      (pins
        (pin (num 1) (name IN) (type power_in))
        (pin (num 2) (name GND) (type power_in))
        (pin (num 3) (name OUT) (type power_out))))
    (libpart (lib Regulator_Linear) (part SPX2920M3-3.3_SOT223)
      (aliases
        (alias SPX2920M3-5.0_SOT223)
        (alias LT1129-3.3_SOT223)
        (alias LT1129-5.0_SOT223)
        (alias LM2937xMP)
        (alias AP7361C-10E)
        (alias AP7361C-12E)
        (alias AP7361C-15E)
        (alias AP7361C-18E)
        (alias AP7361C-25E)
        (alias AP7361C-28E)
        (alias AP7361C-33E))
      (description "400mA Low drop-out regulator, Fixed Output 3.3V, SOT-223")
      (docs http://www.zlgmcu.com/Sipex/LDO/PDF/spx2920.pdf)
      (footprints
        (fp SOT?223*))
      (fields
        (field (name Reference) U)
        (field (name Value) SPX2920M3-3.3_SOT223)
        (field (name Footprint) Package_TO_SOT_SMD:SOT-223-3_TabPin2))
      (pins
        (pin (num 1) (name VI) (type power_in))
        (pin (num 2) (name GND) (type power_in))
        (pin (num 3) (name VO) (type power_out))))
    (libpart (lib rosetronics_v1) (part ESP32MiniKit_Socket)
      (description "Highly integrated ESP32 Module")
      (docs https://www.bastelgarage.ch/esp32minikit-wemos)
      (footprints
        (fp QFN*1EP*5x5mm*P0.5mm*))
      (fields
        (field (name Reference) U)
        (field (name Value) ESP32MiniKit_Socket)
        (field (name Footprint) "Shield for ESP32-POE"))
      (pins
        (pin (num LI_01) (name RST/EN) (type BiDi))
        (pin (num LI_02) (name SENSvp/GPI36) (type BiDi))
        (pin (num LI_03) (name GPIO26/DAC2) (type BiDi))
        (pin (num LI_04) (name GPIO18) (type BiDi))
        (pin (num LI_05) (name GPIO19) (type BiDi))
        (pin (num LI_06) (name GPIO23) (type BiDi))
        (pin (num LI_07) (name GPIO5) (type BiDi))
        (pin (num LI_08) (name 3V3) (type power_in))
        (pin (num LI_09) (name GPIO13/TCK) (type BiDi))
        (pin (num LI_10) (name FLASH_D3) (type BiDi))
        (pin (num LO_01) (name GND) (type power_in))
        (pin (num LO_02) (name NC) (type BiDi))
        (pin (num LO_03) (name SENSvn/GPI39) (type BiDi))
        (pin (num LO_04) (name GPI35) (type BiDi))
        (pin (num LO_05) (name GPIO33/XTAL32) (type BiDi))
        (pin (num LO_06) (name GPI34) (type BiDi))
        (pin (num LO_07) (name GPIO14/TMS) (type BiDi))
        (pin (num LO_08) (name NC) (type BiDi))
        (pin (num LO_09) (name FLASH_D2) (type BiDi))
        (pin (num LO_10) (name SDCMD/GPIO11) (type BiDi))
        (pin (num RI_01) (name U0TXD/GPIO1) (type BiDi))
        (pin (num RI_02) (name U0RXD/GPIO3) (type BiDi))
        (pin (num RI_03) (name GPIO22/I2C_SCL) (type BiDi))
        (pin (num RI_04) (name GPIO21/I2C_SDA) (type BiDi))
        (pin (num RI_05) (name GPIO17) (type BiDi))
        (pin (num RI_06) (name GPIO16) (type BiDi))
        (pin (num RI_07) (name GND) (type power_in))
        (pin (num RI_08) (name 5V) (type power_in))
        (pin (num RI_09) (name GPIO15/TDO) (type BiDi))
        (pin (num RI_10) (name FLASH_D0) (type BiDi))
        (pin (num RO_01) (name GND) (type power_in))
        (pin (num RO_02) (name GPIO27) (type BiDi))
        (pin (num RO_03) (name GPIO25/DAC1) (type BiDi))
        (pin (num RO_04) (name GPIO32/XTAL32) (type BiDi))
        (pin (num RO_05) (name GPIO12/TDI) (type BiDi))
        (pin (num RO_06) (name GPIO4) (type BiDi))
        (pin (num RO_07) (name GPIO0/CLKout) (type BiDi))
        (pin (num RO_08) (name GPIO2) (type BiDi))
        (pin (num RO_09) (name FLASK_D1) (type BiDi))
        (pin (num RO_10) (name FLASK_SCK) (type BiDi))))
    (libpart (lib rosetronics_v1) (part UEXT_Socket)
      (description "Highly integrated ESP32 Module")
      (docs https://www.olimex.com)
      (footprints
        (fp QFN*1EP*5x5mm*P0.5mm*))
      (fields
        (field (name Reference) U)
        (field (name Value) UEXT_Socket)
        (field (name Footprint) "UEXT Header"))
      (pins
        (pin (num 1) (name 3V3) (type power_in))
        (pin (num 2) (name GND) (type power_in))
        (pin (num 3) (name TXD) (type BiDi))
        (pin (num 4) (name RXD) (type BiDi))
        (pin (num 5) (name SCL) (type BiDi))
        (pin (num 6) (name SDA) (type BiDi))
        (pin (num 7) (name MISO) (type BiDi))
        (pin (num 8) (name MOSI) (type BiDi))
        (pin (num 9) (name SCK) (type BiDi))
        (pin (num 10) (name SSEL) (type BiDi)))))
  (libraries
    (library (logical Connector)
      (uri /run/media/mdrobisch/Fast/Git/kicad-symbols/Connector.lib))
    (library (logical Device)
      (uri /run/media/mdrobisch/Fast/Git/kicad-symbols/Device.lib))
    (library (logical Mechanical)
      (uri /run/media/mdrobisch/Fast/Git/kicad-symbols/Mechanical.lib))
    (library (logical Regulator_Linear)
      (uri /run/media/mdrobisch/Fast/Git/kicad-symbols/Regulator_Linear.lib))
    (library (logical rosetronics_v1)
      (uri /run/media/mdrobisch/Data/Workspaces/Electronics/rosetronics/symbols/rosetronics_v1.lib)))
  (nets
    (net (code 1) (name "Net-(JP1-Pad1)")
      (node (ref JP1) (pin 1))
      (node (ref U2) (pin LI_08)))
    (net (code 2) (name GND)
      (node (ref D1) (pin 1))
      (node (ref D2) (pin 1))
      (node (ref J1) (pin 3))
      (node (ref Q2) (pin 3))
      (node (ref J4) (pin 3))
      (node (ref J5) (pin 3))
      (node (ref J10) (pin 7))
      (node (ref J10) (pin 8))
      (node (ref R19) (pin 1))
      (node (ref J7) (pin 2))
      (node (ref R30) (pin 1))
      (node (ref C1) (pin 2))
      (node (ref Q1) (pin 3))
      (node (ref C2) (pin 2))
      (node (ref C4) (pin 2))
      (node (ref J2) (pin 3))
      (node (ref R9) (pin 1))
      (node (ref R10) (pin 1))
      (node (ref U4) (pin 2))
      (node (ref U2) (pin LO_01))
      (node (ref U2) (pin RI_07))
      (node (ref U5) (pin 2))
      (node (ref C3) (pin 2))
      (node (ref U3) (pin 2))
      (node (ref J3) (pin 1))
      (node (ref J3) (pin 2))
      (node (ref J3) (pin 3))
      (node (ref J6) (pin 6))
      (node (ref R11) (pin 1))
      (node (ref R12) (pin 1))
      (node (ref J9) (pin 7))
      (node (ref J9) (pin 8))
      (node (ref U2) (pin RO_01)))
    (net (code 3) (name "Net-(U2-PadRO_10)")
      (node (ref U2) (pin RO_10)))
    (net (code 4) (name "Net-(U2-PadRI_10)")
      (node (ref U2) (pin RI_10)))
    (net (code 5) (name "Net-(U2-PadLI_10)")
      (node (ref U2) (pin LI_10)))
    (net (code 6) (name +3V3)
      (node (ref R23) (pin 2))
      (node (ref J3) (pin 10))
      (node (ref JP3) (pin 2))
      (node (ref R20) (pin 2))
      (node (ref R22) (pin 2))
      (node (ref JP1) (pin 2))
      (node (ref J3) (pin 9))
      (node (ref U5) (pin 1))
      (node (ref J5) (pin 2))
      (node (ref R24) (pin 2))
      (node (ref J6) (pin 8))
      (node (ref J4) (pin 2)))
    (net (code 7) (name "Net-(J6-Pad5)")
      (node (ref J6) (pin 5)))
    (net (code 8) (name /SLAVE_RST)
      (node (ref U2) (pin RO_05))
      (node (ref J6) (pin 7)))
    (net (code 9) (name +5V)
      (node (ref J1) (pin 1))
      (node (ref C4) (pin 1))
      (node (ref U4) (pin 1))
      (node (ref U2) (pin RI_08))
      (node (ref C1) (pin 1))
      (node (ref J2) (pin 1))
      (node (ref U3) (pin 3))
      (node (ref J3) (pin 11)))
    (net (code 10) (name /EXT_I2C_SDA)
      (node (ref U2) (pin LI_04))
      (node (ref R15) (pin 2))
      (node (ref J4) (pin 1))
      (node (ref R13) (pin 2))
      (node (ref J5) (pin 1)))
    (net (code 11) (name /EXT_I2C_SCL)
      (node (ref U2) (pin LI_05))
      (node (ref J5) (pin 4))
      (node (ref R14) (pin 2))
      (node (ref J4) (pin 4))
      (node (ref R16) (pin 2)))
    (net (code 12) (name /SPI_MISO)
      (node (ref U5) (pin 7))
      (node (ref J6) (pin 4))
      (node (ref J3) (pin 7))
      (node (ref U2) (pin RI_09)))
    (net (code 13) (name /I2C_SDA)
      (node (ref J3) (pin 4))
      (node (ref R15) (pin 1))
      (node (ref R22) (pin 1))
      (node (ref U5) (pin 6))
      (node (ref U2) (pin LI_09))
      (node (ref R13) (pin 1)))
    (net (code 14) (name /I2C_SCL)
      (node (ref U2) (pin RI_06))
      (node (ref R14) (pin 1))
      (node (ref R16) (pin 1))
      (node (ref J3) (pin 12))
      (node (ref R20) (pin 1))
      (node (ref U5) (pin 5)))
    (net (code 15) (name /SPI_CS_A)
      (node (ref J3) (pin 8))
      (node (ref R23) (pin 1))
      (node (ref U5) (pin 10))
      (node (ref U2) (pin LI_07)))
    (net (code 16) (name /SPI_MOSI)
      (node (ref U2) (pin RO_08))
      (node (ref U5) (pin 8))
      (node (ref J6) (pin 3))
      (node (ref J3) (pin 15)))
    (net (code 17) (name /SPI_SCK)
      (node (ref J6) (pin 2))
      (node (ref J3) (pin 14))
      (node (ref U2) (pin LO_07))
      (node (ref U5) (pin 9)))
    (net (code 18) (name /SPI_CS_B)
      (node (ref U2) (pin RO_04))
      (node (ref J3) (pin 6))
      (node (ref J6) (pin 1)))
    (net (code 19) (name /EXT_A_GPIO)
      (node (ref R18) (pin 2))
      (node (ref R5) (pin 2))
      (node (ref J4) (pin 5))
      (node (ref U2) (pin RO_07)))
    (net (code 20) (name /PORT_GPIO_A)
      (node (ref U5) (pin 3))
      (node (ref J3) (pin 13))
      (node (ref U2) (pin RO_06)))
    (net (code 21) (name /SWITCH2)
      (node (ref R8) (pin 2))
      (node (ref R29) (pin 2))
      (node (ref J9) (pin 6))
      (node (ref J10) (pin 6)))
    (net (code 22) (name /UART_RX)
      (node (ref R17) (pin 1))
      (node (ref U2) (pin RI_02)))
    (net (code 23) (name "Net-(Q2-Pad1)")
      (node (ref R21) (pin 1))
      (node (ref R30) (pin 2))
      (node (ref Q2) (pin 1)))
    (net (code 24) (name "Net-(Q1-Pad1)")
      (node (ref Q1) (pin 1))
      (node (ref R19) (pin 2))
      (node (ref R18) (pin 1)))
    (net (code 25) (name /SWIN1)
      (node (ref U2) (pin LO_06))
      (node (ref R7) (pin 1))
      (node (ref R11) (pin 2)))
    (net (code 26) (name /SWIN2)
      (node (ref U2) (pin LI_02))
      (node (ref R12) (pin 2))
      (node (ref R8) (pin 1)))
    (net (code 27) (name VDDA)
      (node (ref R29) (pin 1))
      (node (ref J10) (pin 2))
      (node (ref R28) (pin 1))
      (node (ref D4) (pin 1))
      (node (ref D5) (pin 1))
      (node (ref JP4) (pin 1))
      (node (ref J9) (pin 2)))
    (net (code 28) (name "Net-(U2-PadRI_01)")
      (node (ref U2) (pin RI_01)))
    (net (code 29) (name "Net-(U2-PadLI_01)")
      (node (ref U2) (pin LI_01)))
    (net (code 30) (name "Net-(U2-PadRO_02)")
      (node (ref U2) (pin RO_02)))
    (net (code 31) (name "Net-(U2-PadRO_03)")
      (node (ref U2) (pin RO_03)))
    (net (code 32) (name "Net-(U2-PadRI_05)")
      (node (ref U2) (pin RI_05)))
    (net (code 33) (name "Net-(U2-PadLI_03)")
      (node (ref U2) (pin LI_03)))
    (net (code 34) (name /RDM_B_TX)
      (node (ref U2) (pin RI_03))
      (node (ref R3) (pin 1))
      (node (ref U2) (pin LO_03))
      (node (ref R9) (pin 2)))
    (net (code 35) (name /RDM_A_TX)
      (node (ref R10) (pin 2))
      (node (ref R4) (pin 1))
      (node (ref U2) (pin LO_04))
      (node (ref U2) (pin RI_04)))
    (net (code 36) (name "Net-(U2-PadLO_09)")
      (node (ref U2) (pin LO_09)))
    (net (code 37) (name "Net-(U2-PadRO_09)")
      (node (ref U2) (pin RO_09)))
    (net (code 38) (name /SWITCH1)
      (node (ref R28) (pin 2))
      (node (ref R7) (pin 2))
      (node (ref J10) (pin 5))
      (node (ref J9) (pin 5)))
    (net (code 39) (name "Net-(U2-PadLO_02)")
      (node (ref U2) (pin LO_02)))
    (net (code 40) (name "Net-(U2-PadLO_08)")
      (node (ref U2) (pin LO_08)))
    (net (code 41) (name "Net-(U2-PadLO_10)")
      (node (ref U2) (pin LO_10)))
    (net (code 42) (name "Net-(D5-Pad2)")
      (node (ref Q2) (pin 2))
      (node (ref J10) (pin 3))
      (node (ref J9) (pin 3))
      (node (ref D5) (pin 2)))
    (net (code 43) (name "Net-(D4-Pad2)")
      (node (ref J9) (pin 4))
      (node (ref J10) (pin 4))
      (node (ref Q1) (pin 2))
      (node (ref D4) (pin 2)))
    (net (code 44) (name /EXT_B_GPIO)
      (node (ref J5) (pin 5))
      (node (ref R21) (pin 2))
      (node (ref U2) (pin LI_06))
      (node (ref R17) (pin 2))
      (node (ref R6) (pin 2)))
    (net (code 45) (name "Net-(D2-Pad2)")
      (node (ref R6) (pin 1))
      (node (ref D2) (pin 2)))
    (net (code 46) (name "Net-(D1-Pad2)")
      (node (ref R5) (pin 1))
      (node (ref D1) (pin 2)))
    (net (code 47) (name VDD)
      (node (ref D3) (pin 2))
      (node (ref JP4) (pin 2))
      (node (ref J10) (pin 1))
      (node (ref J9) (pin 1)))
    (net (code 48) (name "Net-(J1-Pad2)")
      (node (ref R3) (pin 2))
      (node (ref J1) (pin 2)))
    (net (code 49) (name "Net-(J2-Pad2)")
      (node (ref R4) (pin 2))
      (node (ref J2) (pin 2)))
    (net (code 50) (name "Net-(C3-Pad1)")
      (node (ref U3) (pin 1))
      (node (ref C3) (pin 1))
      (node (ref D3) (pin 1))
      (node (ref J7) (pin 1)))
    (net (code 51) (name /PORT_GPIO_B)
      (node (ref J3) (pin 5))
      (node (ref U5) (pin 4))
      (node (ref R24) (pin 1))
      (node (ref U2) (pin LO_05)))
    (net (code 52) (name +3.3VA)
      (node (ref JP3) (pin 1))
      (node (ref C2) (pin 1))
      (node (ref U4) (pin 3)))
    (net (code 53) (name +3.3VP)
      (node (ref C13) (pin 1))
      (node (ref J11) (pin 8))
      (node (ref J12) (pin 2))
      (node (ref TP2) (pin 1))
      (node (ref R25) (pin 1))
      (node (ref J14) (pin 9))
      (node (ref J14) (pin 10))
      (node (ref U6) (pin 1))
      (node (ref C11) (pin 1))
      (node (ref C9) (pin 1))
      (node (ref C7) (pin 2))
      (node (ref C5) (pin 1))
      (node (ref C6) (pin 2)))
    (net (code 54) (name "/Board Adapter/ADP_I2C_SDA")
      (node (ref J12) (pin 1))
      (node (ref U6) (pin 6))
      (node (ref J14) (pin 4)))
    (net (code 55) (name GNDD)
      (node (ref C13) (pin 2))
      (node (ref C8) (pin 2))
      (node (ref C11) (pin 2))
      (node (ref R27) (pin 1))
      (node (ref C9) (pin 2))
      (node (ref J14) (pin 2))
      (node (ref J14) (pin 3))
      (node (ref J14) (pin 1))
      (node (ref C7) (pin 1))
      (node (ref U6) (pin 2))
      (node (ref C10) (pin 2))
      (node (ref C12) (pin 2))
      (node (ref TP3) (pin 1))
      (node (ref J8) (pin 3))
      (node (ref C5) (pin 2))
      (node (ref C6) (pin 1))
      (node (ref J12) (pin 3))
      (node (ref J11) (pin 6)))
    (net (code 56) (name +5VA)
      (node (ref C8) (pin 1))
      (node (ref C10) (pin 1))
      (node (ref J14) (pin 11))
      (node (ref C12) (pin 1))
      (node (ref R2) (pin 1))
      (node (ref TP1) (pin 1)))
    (net (code 57) (name "Net-(J8-Pad1)")
      (node (ref J8) (pin 1))
      (node (ref R2) (pin 2))
      (node (ref R25) (pin 2)))
    (net (code 58) (name "/Board Adapter/ADP_PORT_GPIO_A")
      (node (ref J12) (pin 5))
      (node (ref U6) (pin 3))
      (node (ref J14) (pin 13)))
    (net (code 59) (name "/Board Adapter/ADP_I2C_SCL")
      (node (ref J12) (pin 4))
      (node (ref U6) (pin 5))
      (node (ref J14) (pin 12)))
    (net (code 60) (name "Net-(J11-Pad7)")
      (node (ref J11) (pin 7))
      (node (ref R1) (pin 2)))
    (net (code 61) (name "Net-(J11-Pad5)")
      (node (ref J11) (pin 5)))
    (net (code 62) (name "Net-(J8-Pad2)")
      (node (ref J8) (pin 2))
      (node (ref R26) (pin 2)))
    (net (code 63) (name "/Board Adapter/ADP_SPI_MISO")
      (node (ref J11) (pin 4))
      (node (ref J14) (pin 7))
      (node (ref U6) (pin 7)))
    (net (code 64) (name "/Board Adapter/ADP_SPI_CS_B")
      (node (ref J14) (pin 6))
      (node (ref J11) (pin 1)))
    (net (code 65) (name "/Board Adapter/ADP_PORT_GPIO_B")
      (node (ref R26) (pin 1))
      (node (ref J14) (pin 5))
      (node (ref R1) (pin 1))
      (node (ref U6) (pin 4))
      (node (ref R27) (pin 2)))
    (net (code 66) (name "/Board Adapter/ADP_SPI_CS_A")
      (node (ref J14) (pin 8))
      (node (ref U6) (pin 10)))
    (net (code 67) (name "/Board Adapter/ADP_SPI_SCK")
      (node (ref U6) (pin 9))
      (node (ref J11) (pin 2))
      (node (ref J14) (pin 14)))
    (net (code 68) (name "/Board Adapter/ADP_SPI_MOSI")
      (node (ref J14) (pin 15))
      (node (ref J11) (pin 3))
      (node (ref U6) (pin 8)))))