EESchema Schematic File Version 4
LIBS:rosetronics_universal-cache
EELAYER 29 0
EELAYER END
$Descr A4 11693 8268
encoding utf-8
Sheet 2 2
Title ""
Date ""
Rev ""
Comp ""
Comment1 ""
Comment2 ""
Comment3 ""
Comment4 ""
$EndDescr
$Comp
L Connector:DB15_Female J?
U 1 1 5D611691
P 5350 4200
AR Path="/5D611691" Ref="J?"  Part="1" 
AR Path="/5D3B8885/5D611691" Ref="J14"  Part="1" 
F 0 "J14" H 5450 3300 50  0000 C CNN
F 1 "PORT" H 5500 5050 50  0000 C CNN
F 2 "Connector_Dsub:DSUB-15_Male_Vertical_P2.77x2.84mm_MountingHoles" H 5350 4200 50  0001 C CNN
F 3 " ~" H 5350 4200 50  0001 C CNN
	1    5350 4200
	-1   0    0    1   
$EndComp
Wire Wire Line
	5650 4300 5850 4300
Wire Wire Line
	5650 4200 5850 4200
Wire Wire Line
	5650 4100 5850 4100
Wire Wire Line
	5650 4000 5850 4000
Wire Wire Line
	5650 3900 5850 3900
Wire Wire Line
	5650 3800 5850 3800
Wire Wire Line
	5650 3700 5850 3700
Wire Wire Line
	5650 3600 5850 3600
Wire Wire Line
	5650 3500 5850 3500
Wire Wire Line
	5950 4900 5950 5100
Wire Wire Line
	5650 4900 5950 4900
Wire Wire Line
	5950 4700 5950 4900
Wire Wire Line
	5650 4700 5950 4700
Connection ~ 5950 4900
Wire Wire Line
	6100 4800 6100 5150
Wire Wire Line
	5650 4800 6100 4800
Wire Wire Line
	6100 4600 6100 4800
Wire Wire Line
	5650 4600 6100 4600
Connection ~ 6100 4800
Wire Wire Line
	5650 4400 6250 4400
Text Label 5850 3500 0    50   ~ 0
ADP_SPI_CS_A
Text Label 5850 3600 0    50   ~ 0
ADP_SPI_MOSI
Text Label 5850 3700 0    50   ~ 0
ADP_SPI_MISO
Text Label 5850 3800 0    50   ~ 0
ADP_SPI_SCK
Text Label 5850 4000 0    50   ~ 0
ADP_PORT_GPIO_A
Text Label 5850 4200 0    50   ~ 0
ADP_I2C_SCL
Text Label 5850 4100 0    50   ~ 0
ADP_PORT_GPIO_B
Text Label 5850 4300 0    50   ~ 0
ADP_I2C_SDA
Text Label 5850 3900 0    50   ~ 0
ADP_SPI_CS_B
Text Notes 5100 5175 0    50   ~ 0
[D-SUB BU 15P]\n
$Comp
L rosetronics_v1:UEXT_Socket U?
U 1 1 5D617FBF
P 3400 2500
AR Path="/5D617FBF" Ref="U?"  Part="1" 
AR Path="/5D3B8885/5D617FBF" Ref="U6"  Part="1" 
F 0 "U6" H 3200 2900 50  0000 C CNN
F 1 "UEXT_Socket (Display)" H 3150 2100 50  0000 C CNN
F 2 "Connector_Samtec_HLE_THT:Samtec_HLE-105-02-xx-DV-TE_2x05_P2.54mm_Horizontal" H 3200 2100 50  0001 C CNN
F 3 "https://www.olimex.com" H 3500 1200 50  0001 C CNN
	1    3400 2500
	1    0    0    -1  
$EndComp
Wire Wire Line
	3100 2400 2900 2400
Wire Wire Line
	3100 2700 2900 2700
Wire Wire Line
	3100 2300 3050 2300
Wire Wire Line
	3050 2300 3050 1750
Wire Wire Line
	3750 1400 3750 1750
Wire Wire Line
	3750 2300 3700 2300
Wire Wire Line
	3700 2600 3950 2600
Wire Wire Line
	3700 2500 3950 2500
Wire Wire Line
	3700 2400 3950 2400
Wire Wire Line
	3700 2700 3950 2700
Wire Wire Line
	2900 2500 3100 2500
Wire Wire Line
	6250 4400 6250 5100
Wire Wire Line
	5650 4500 5950 4500
Wire Wire Line
	5950 4500 5950 4700
Connection ~ 5950 4700
$Comp
L power:+5VA #PWR065
U 1 1 5D6954C3
P 6250 5100
F 0 "#PWR065" H 6250 4950 50  0001 C CNN
F 1 "+5VA" V 6250 5350 50  0000 C CNN
F 2 "" H 6250 5100 50  0001 C CNN
F 3 "" H 6250 5100 50  0001 C CNN
	1    6250 5100
	-1   0    0    1   
$EndComp
$Comp
L power:+3.3VP #PWR052
U 1 1 5D697587
P 3050 1400
F 0 "#PWR052" H 3200 1350 50  0001 C CNN
F 1 "+3.3VP" H 3070 1543 50  0000 C CNN
F 2 "" H 3050 1400 50  0001 C CNN
F 3 "" H 3050 1400 50  0001 C CNN
	1    3050 1400
	1    0    0    -1  
$EndComp
$Comp
L power:+3.3VP #PWR064
U 1 1 5D697885
P 6100 5150
F 0 "#PWR064" H 6250 5100 50  0001 C CNN
F 1 "+3.3VP" V 6100 5400 50  0000 C CNN
F 2 "" H 6100 5150 50  0001 C CNN
F 3 "" H 6100 5150 50  0001 C CNN
	1    6100 5150
	-1   0    0    1   
$EndComp
$Comp
L power:GNDD #PWR062
U 1 1 5D699E2A
P 5950 5100
F 0 "#PWR062" H 5950 4850 50  0001 C CNN
F 1 "GNDD" V 5950 4850 50  0000 C CNN
F 2 "" H 5950 5100 50  0001 C CNN
F 3 "" H 5950 5100 50  0001 C CNN
	1    5950 5100
	1    0    0    -1  
$EndComp
$Comp
L power:GNDD #PWR057
U 1 1 5D69A85D
P 3750 1400
F 0 "#PWR057" H 3750 1150 50  0001 C CNN
F 1 "GNDD" H 3750 1250 50  0000 C CNN
F 2 "" H 3750 1400 50  0001 C CNN
F 3 "" H 3750 1400 50  0001 C CNN
	1    3750 1400
	-1   0    0    1   
$EndComp
$Comp
L power:GNDD #PWR067
U 1 1 5D69B743
P 8250 2400
F 0 "#PWR067" H 8250 2150 50  0001 C CNN
F 1 "GNDD" V 8250 2150 50  0000 C CNN
F 2 "" H 8250 2400 50  0001 C CNN
F 3 "" H 8250 2400 50  0001 C CNN
	1    8250 2400
	1    0    0    -1  
$EndComp
$Comp
L Device:C_Small C12
U 1 1 5D69C22B
P 8500 1700
F 0 "C12" V 8450 1500 50  0000 L CNN
F 1 "470nF" V 8550 1750 50  0000 L CNN
F 2 "Capacitor_SMD:C_0805_2012Metric_Pad1.15x1.40mm_HandSolder" H 8500 1700 50  0001 C CNN
F 3 "~" H 8500 1700 50  0001 C CNN
	1    8500 1700
	1    0    0    -1  
$EndComp
$Comp
L Device:C_Small C10
U 1 1 5D69CEB8
P 8250 1700
F 0 "C10" V 8200 1500 50  0000 L CNN
F 1 "10µF" V 8300 1750 50  0000 L CNN
F 2 "Capacitor_SMD:C_0805_2012Metric_Pad1.15x1.40mm_HandSolder" H 8250 1700 50  0001 C CNN
F 3 "~" H 8250 1700 50  0001 C CNN
	1    8250 1700
	1    0    0    -1  
$EndComp
$Comp
L Device:C_Small C8
U 1 1 5D69D1E9
P 8000 1700
F 0 "C8" V 7950 1500 50  0000 L CNN
F 1 "100µF" V 8050 1750 50  0000 L CNN
F 2 "Capacitor_SMD:CP_Elec_6.3x5.9" H 8000 1700 50  0001 C CNN
F 3 "~" H 8000 1700 50  0001 C CNN
	1    8000 1700
	1    0    0    -1  
$EndComp
Wire Wire Line
	8000 1600 8000 1300
Wire Wire Line
	8000 1300 8250 1300
Wire Wire Line
	8250 1300 8250 1100
Wire Wire Line
	8250 1300 8250 1600
Connection ~ 8250 1300
Wire Wire Line
	8250 1300 8500 1300
Wire Wire Line
	8500 1300 8500 1600
Wire Wire Line
	8000 1800 8000 2100
Wire Wire Line
	8000 2100 8250 2100
Wire Wire Line
	8250 2100 8250 2400
Wire Wire Line
	8250 1800 8250 2100
Connection ~ 8250 2100
Wire Wire Line
	8500 1800 8500 2100
Wire Wire Line
	8500 2100 8250 2100
$Comp
L power:GNDD #PWR069
U 1 1 5D6A6A44
P 8250 4450
F 0 "#PWR069" H 8250 4200 50  0001 C CNN
F 1 "GNDD" V 8250 4200 50  0000 C CNN
F 2 "" H 8250 4450 50  0001 C CNN
F 3 "" H 8250 4450 50  0001 C CNN
	1    8250 4450
	1    0    0    -1  
$EndComp
$Comp
L Device:C_Small C13
U 1 1 5D6A6A4A
P 8500 3750
F 0 "C13" V 8450 3550 50  0000 L CNN
F 1 "470nF" V 8550 3800 50  0000 L CNN
F 2 "Capacitor_SMD:C_0805_2012Metric_Pad1.15x1.40mm_HandSolder" H 8500 3750 50  0001 C CNN
F 3 "~" H 8500 3750 50  0001 C CNN
	1    8500 3750
	1    0    0    -1  
$EndComp
$Comp
L Device:C_Small C11
U 1 1 5D6A6A50
P 8250 3750
F 0 "C11" V 8200 3550 50  0000 L CNN
F 1 "10µF" V 8300 3800 50  0000 L CNN
F 2 "Capacitor_SMD:C_0805_2012Metric_Pad1.15x1.40mm_HandSolder" H 8250 3750 50  0001 C CNN
F 3 "~" H 8250 3750 50  0001 C CNN
	1    8250 3750
	1    0    0    -1  
$EndComp
$Comp
L Device:C_Small C9
U 1 1 5D6A6A56
P 8000 3750
F 0 "C9" V 7950 3550 50  0000 L CNN
F 1 "100µF" V 8050 3800 50  0000 L CNN
F 2 "Capacitor_SMD:CP_Elec_6.3x5.9" H 8000 3750 50  0001 C CNN
F 3 "~" H 8000 3750 50  0001 C CNN
	1    8000 3750
	1    0    0    -1  
$EndComp
Wire Wire Line
	8000 3650 8000 3350
Wire Wire Line
	8000 3350 8250 3350
Wire Wire Line
	8250 3350 8250 3100
Wire Wire Line
	8250 3350 8250 3650
Connection ~ 8250 3350
Wire Wire Line
	8250 3350 8500 3350
Wire Wire Line
	8500 3350 8500 3650
Wire Wire Line
	8000 3850 8000 4150
Wire Wire Line
	8000 4150 8250 4150
Wire Wire Line
	8250 4150 8250 4450
Wire Wire Line
	8250 3850 8250 4150
Connection ~ 8250 4150
Wire Wire Line
	8500 3850 8500 4150
Wire Wire Line
	8500 4150 8250 4150
$Comp
L power:+3.3VP #PWR068
U 1 1 5D6A7A21
P 8250 3100
F 0 "#PWR068" H 8400 3050 50  0001 C CNN
F 1 "+3.3VP" H 8250 3200 50  0000 C CNN
F 2 "" H 8250 3100 50  0001 C CNN
F 3 "" H 8250 3100 50  0001 C CNN
	1    8250 3100
	1    0    0    -1  
$EndComp
$Comp
L Connector:Conn_01x08_Male J?
U 1 1 5D6B6785
P 2150 6300
AR Path="/5D6B6785" Ref="J?"  Part="1" 
AR Path="/5D3B8885/5D6B6785" Ref="J11"  Part="1" 
F 0 "J11" H 2258 6781 50  0000 C CNN
F 1 "MFRC522" H 2100 5800 50  0000 C CNN
F 2 "Connector_JST:JST_XH_B8B-XH-A_1x08_P2.50mm_Vertical" H 2150 6300 50  0001 C CNN
F 3 "~" H 2150 6300 50  0001 C CNN
	1    2150 6300
	1    0    0    -1  
$EndComp
Wire Wire Line
	2350 6000 2450 6000
Wire Wire Line
	2350 6100 2450 6100
Wire Wire Line
	2450 6200 2350 6200
Wire Wire Line
	2350 6300 2450 6300
Wire Wire Line
	2450 6400 2350 6400
Wire Wire Line
	2350 6600 2500 6600
Text Notes 2100 6000 2    50   ~ 0
MFRC522_SS|SDA\n
Text Notes 2100 6100 2    50   ~ 0
MFRC522_SCK\n
Text Notes 2100 6200 2    50   ~ 0
MFRC522_MOSI\n
Text Notes 2100 6300 2    50   ~ 0
MFRC522_MISO|SCL\n
Text Notes 2100 6400 2    50   ~ 0
MFRC522_IRQ\n
Text Notes 2100 6500 2    50   ~ 0
MFRC522_GND\n
Text Notes 2100 6600 2    50   ~ 0
MFRC522_RST\n
Text Notes 2100 6700 2    50   ~ 0
MFRC522_3V3\n
Text Notes 2300 6850 0    50   ~ 0
[PS 25/8O]\n
$Comp
L Connector:Conn_01x05_Male J?
U 1 1 5D6BDE57
P 2250 4450
AR Path="/5D6BDE57" Ref="J?"  Part="1" 
AR Path="/5D3B8885/5D6BDE57" Ref="J12"  Part="1" 
F 0 "J12" H 2200 4800 50  0000 C CNN
F 1 "EXT A" H 2200 4150 50  0000 C CNN
F 2 "Connector_JST:JST_XH_B5B-XH-A_1x05_P2.50mm_Vertical" H 2250 4450 50  0001 C CNN
F 3 "~" H 2250 4450 50  0001 C CNN
	1    2250 4450
	1    0    0    -1  
$EndComp
Text Notes 2350 4800 0    50   ~ 0
[PS 25/5O]\n
Text Notes 2200 4450 2    50   ~ 0
EXT_ADP_GND\n
Text Notes 2200 4350 2    50   ~ 0
EXT_ADP_3V3\n
Text Notes 2200 4250 2    50   ~ 0
EXT_ADP_I2C_SDA\n
Text Notes 2200 4550 2    50   ~ 0
EXT_ADP_I2C_SCL\n
Text Notes 2200 4650 2    50   ~ 0
EXT_ADP_GPIO
$Comp
L Device:C_Small C6
U 1 1 5D6D7182
P 3400 1750
F 0 "C6" V 3350 1550 50  0000 L CNN
F 1 "2.2µF" V 3450 1800 50  0000 L CNN
F 2 "Capacitor_SMD:C_0805_2012Metric_Pad1.15x1.40mm_HandSolder" H 3400 1750 50  0001 C CNN
F 3 "~" H 3400 1750 50  0001 C CNN
	1    3400 1750
	0    1    1    0   
$EndComp
$Comp
L Device:C_Small C5
U 1 1 5D6D7B38
P 2950 3800
F 0 "C5" H 3050 3700 50  0000 L CNN
F 1 "2.2µF" H 3000 3900 50  0000 L CNN
F 2 "Capacitor_SMD:C_0805_2012Metric_Pad1.15x1.40mm_HandSolder" H 2950 3800 50  0001 C CNN
F 3 "~" H 2950 3800 50  0001 C CNN
	1    2950 3800
	-1   0    0    1   
$EndComp
Wire Wire Line
	3500 1750 3750 1750
Connection ~ 3750 1750
Wire Wire Line
	3750 1750 3750 2300
Wire Wire Line
	3300 1750 3050 1750
Connection ~ 3050 1750
Wire Wire Line
	3050 1750 3050 1400
$Comp
L Connector:Conn_01x03_Male J13
U 1 1 5D6E70BF
P 5200 1700
F 0 "J13" H 5308 1981 50  0000 C CNN
F 1 "EXT 5V" H 5200 1500 50  0000 C CNN
F 2 "Connector_JST:JST_XH_B3B-XH-A_1x03_P2.50mm_Vertical" H 5200 1700 50  0001 C CNN
F 3 "~" H 5200 1700 50  0001 C CNN
	1    5200 1700
	1    0    0    -1  
$EndComp
Text Notes 5150 1700 2    50   ~ 0
EXT_ADP_GPIO
Text Notes 5000 2025 0    50   ~ 0
[PS 25/3O]\n
$Comp
L Device:R_Small R26
U 1 1 5D6EAA83
P 5600 1350
F 0 "R26" V 5500 1250 50  0000 L CNN
F 1 "0R" V 5500 1400 50  0000 L CNN
F 2 "Resistors:R_0805_2012Metric_Pad1.15x1.40mm_HandSolder" H 5600 1350 50  0001 C CNN
F 3 "~" H 5600 1350 50  0001 C CNN
	1    5600 1350
	1    0    0    -1  
$EndComp
$Comp
L Device:R_Small R27
U 1 1 5D6EB498
P 5700 1350
F 0 "R27" V 5800 1250 50  0000 L CNN
F 1 "0R" V 5800 1400 50  0000 L CNN
F 2 "Resistors:R_0805_2012Metric_Pad1.15x1.40mm_HandSolder" H 5700 1350 50  0001 C CNN
F 3 "~" H 5700 1350 50  0001 C CNN
	1    5700 1350
	1    0    0    -1  
$EndComp
$Comp
L power:+3.3VP #PWR060
U 1 1 5D6EC1EE
P 5700 1150
F 0 "#PWR060" H 5850 1100 50  0001 C CNN
F 1 "+3.3VP" H 5900 1200 50  0000 C CNN
F 2 "" H 5700 1150 50  0001 C CNN
F 3 "" H 5700 1150 50  0001 C CNN
	1    5700 1150
	1    0    0    -1  
$EndComp
$Comp
L power:+5VA #PWR066
U 1 1 5D69B4BF
P 8250 1100
F 0 "#PWR066" H 8250 950 50  0001 C CNN
F 1 "+5VA" H 8250 1250 50  0000 C CNN
F 2 "" H 8250 1100 50  0001 C CNN
F 3 "" H 8250 1100 50  0001 C CNN
	1    8250 1100
	1    0    0    -1  
$EndComp
$Comp
L power:+5VA #PWR059
U 1 1 5D6EE180
P 5600 1150
F 0 "#PWR059" H 5600 1000 50  0001 C CNN
F 1 "+5VA" H 5450 1200 50  0000 C CNN
F 2 "" H 5600 1150 50  0001 C CNN
F 3 "" H 5600 1150 50  0001 C CNN
	1    5600 1150
	1    0    0    -1  
$EndComp
Wire Wire Line
	5400 1600 5600 1600
Wire Wire Line
	5600 1600 5600 1450
Wire Wire Line
	5600 1600 5700 1600
Wire Wire Line
	5700 1600 5700 1450
Connection ~ 5600 1600
Wire Wire Line
	5700 1150 5700 1250
Wire Wire Line
	5600 1150 5600 1250
$Comp
L Device:C_Small C7
U 1 1 5D6F83F8
P 3650 6950
F 0 "C7" H 3700 6850 50  0000 L CNN
F 1 "2.2µF" H 3700 7050 50  0000 L CNN
F 2 "Capacitor_SMD:C_0805_2012Metric_Pad1.15x1.40mm_HandSolder" H 3650 6950 50  0001 C CNN
F 3 "~" H 3650 6950 50  0001 C CNN
	1    3650 6950
	-1   0    0    1   
$EndComp
$Comp
L power:GNDD #PWR051
U 1 1 5D6FB411
P 2950 3600
F 0 "#PWR051" H 2950 3350 50  0001 C CNN
F 1 "GNDD" H 2950 3450 50  0000 C CNN
F 2 "" H 2950 3600 50  0001 C CNN
F 3 "" H 2950 3600 50  0001 C CNN
	1    2950 3600
	-1   0    0    1   
$EndComp
$Comp
L power:GNDD #PWR056
U 1 1 5D6FCA3C
P 3650 7150
F 0 "#PWR056" H 3650 6900 50  0001 C CNN
F 1 "GNDD" H 3650 7000 50  0000 C CNN
F 2 "" H 3650 7150 50  0001 C CNN
F 3 "" H 3650 7150 50  0001 C CNN
	1    3650 7150
	1    0    0    -1  
$EndComp
$Comp
L power:+3.3VP #PWR053
U 1 1 5D6FD26A
P 3300 3600
F 0 "#PWR053" H 3450 3550 50  0001 C CNN
F 1 "+3.3VP" H 3300 3750 50  0000 C CNN
F 2 "" H 3300 3600 50  0001 C CNN
F 3 "" H 3300 3600 50  0001 C CNN
	1    3300 3600
	1    0    0    -1  
$EndComp
Wire Wire Line
	2950 3700 2950 3600
Wire Wire Line
	2450 4250 2550 4250
Wire Wire Line
	3300 3600 3300 4050
$Comp
L power:GNDD #PWR054
U 1 1 5D7163C3
P 3300 4950
F 0 "#PWR054" H 3300 4700 50  0001 C CNN
F 1 "GNDD" H 3300 4800 50  0000 C CNN
F 2 "" H 3300 4950 50  0001 C CNN
F 3 "" H 3300 4950 50  0001 C CNN
	1    3300 4950
	1    0    0    -1  
$EndComp
Wire Wire Line
	2450 4450 3300 4450
Wire Wire Line
	3300 4450 3300 4950
Text Label 2550 4250 0    50   ~ 0
ADP_I2C_SDA
Wire Wire Line
	2450 4350 3300 4350
Wire Wire Line
	2950 3900 2950 4050
Wire Wire Line
	2950 4050 3300 4050
Connection ~ 3300 4050
Wire Wire Line
	3300 4050 3300 4350
Text Label 2550 4550 0    50   ~ 0
ADP_I2C_SCL
Text Label 2550 4650 0    50   ~ 0
ADP_PORT_GPIO_A
Wire Wire Line
	2450 4550 2550 4550
Wire Wire Line
	2450 4650 2550 4650
$Comp
L power:+3.3VP #PWR055
U 1 1 5D7230F0
P 3650 5700
F 0 "#PWR055" H 3800 5650 50  0001 C CNN
F 1 "+3.3VP" H 3650 5850 50  0000 C CNN
F 2 "" H 3650 5700 50  0001 C CNN
F 3 "" H 3650 5700 50  0001 C CNN
	1    3650 5700
	1    0    0    -1  
$EndComp
$Comp
L power:GNDD #PWR058
U 1 1 5D72348A
P 3900 7150
F 0 "#PWR058" H 3900 6900 50  0001 C CNN
F 1 "GNDD" H 3900 7000 50  0000 C CNN
F 2 "" H 3900 7150 50  0001 C CNN
F 3 "" H 3900 7150 50  0001 C CNN
	1    3900 7150
	1    0    0    -1  
$EndComp
Wire Wire Line
	3650 6700 3650 6850
Wire Wire Line
	2350 6700 3650 6700
Wire Wire Line
	3650 6700 3650 5700
Connection ~ 3650 6700
Wire Wire Line
	3650 7050 3650 7150
$Comp
L Device:R_Small R28
U 1 1 5D741181
P 5850 1700
F 0 "R28" V 5750 1600 50  0000 L CNN
F 1 "0R" V 5750 1750 50  0000 L CNN
F 2 "Resistors:R_0805_2012Metric_Pad1.15x1.40mm_HandSolder" H 5850 1700 50  0001 C CNN
F 3 "~" H 5850 1700 50  0001 C CNN
	1    5850 1700
	0    1    1    0   
$EndComp
$Comp
L Device:R_Small R29
U 1 1 5D746E76
P 6050 1900
F 0 "R29" V 5950 1800 50  0000 L CNN
F 1 "0R" V 5950 1950 50  0000 L CNN
F 2 "Resistors:R_0805_2012Metric_Pad1.15x1.40mm_HandSolder" H 6050 1900 50  0001 C CNN
F 3 "~" H 6050 1900 50  0001 C CNN
	1    6050 1900
	-1   0    0    1   
$EndComp
Wire Wire Line
	5400 1800 5700 1800
$Comp
L power:GNDD #PWR061
U 1 1 5D6F5A97
P 5700 2050
F 0 "#PWR061" H 5700 1800 50  0001 C CNN
F 1 "GNDD" H 5700 1900 50  0000 C CNN
F 2 "" H 5700 2050 50  0001 C CNN
F 3 "" H 5700 2050 50  0001 C CNN
	1    5700 2050
	1    0    0    -1  
$EndComp
Wire Wire Line
	5700 1800 5700 2050
$Comp
L power:GNDD #PWR063
U 1 1 5D74F68C
P 6050 2050
F 0 "#PWR063" H 6050 1800 50  0001 C CNN
F 1 "GNDD" H 6050 1900 50  0000 C CNN
F 2 "" H 6050 2050 50  0001 C CNN
F 3 "" H 6050 2050 50  0001 C CNN
	1    6050 2050
	1    0    0    -1  
$EndComp
Wire Wire Line
	5400 1700 5750 1700
Wire Wire Line
	5950 1700 6050 1700
Wire Wire Line
	6050 1700 6050 1800
Wire Wire Line
	6050 2000 6050 2050
Wire Wire Line
	6050 1700 6300 1700
Connection ~ 6050 1700
Text Label 3950 2600 0    50   ~ 0
ADP_SPI_MOSI
Text Label 2900 2700 2    50   ~ 0
ADP_SPI_SCK
Text Label 3950 2700 0    50   ~ 0
ADP_SPI_CS_A
Text Label 2450 6000 0    50   ~ 0
ADP_SPI_CS_B
Text Label 2450 6200 0    50   ~ 0
ADP_SPI_MOSI
Text Label 2450 6300 0    50   ~ 0
ADP_SPI_MISO
Text Label 2450 6100 0    50   ~ 0
ADP_SPI_SCK
NoConn ~ 2450 6400
Text Label 2850 6600 0    50   ~ 0
ADP_PORT_GPIO_B
Wire Wire Line
	2350 6500 3900 6500
Wire Wire Line
	3900 6500 3900 7150
$Comp
L Device:R_Small R25
U 1 1 5D7696E6
P 2600 6600
F 0 "R25" V 2550 6450 50  0000 C CNN
F 1 "0R" V 2550 6750 50  0000 C CNN
F 2 "Resistors:R_0805_2012Metric_Pad1.15x1.40mm_HandSolder" H 2600 6600 50  0001 C CNN
F 3 "~" H 2600 6600 50  0001 C CNN
	1    2600 6600
	0    1    1    0   
$EndComp
Wire Wire Line
	2700 6600 2850 6600
Text Label 6300 1700 0    50   ~ 0
ADP_PORT_GPIO_B
Text Label 2900 2500 2    50   ~ 0
ADP_I2C_SCL
Text Label 3950 2500 0    50   ~ 0
ADP_I2C_SDA
Text Label 3950 2400 0    50   ~ 0
ADP_PORT_GPIO_B
Text Notes 3600 2950 0    50   ~ 0
[WSL10-G]
Text Label 2900 2600 2    50   ~ 0
ADP_SPI_MISO
Wire Wire Line
	3100 2600 2900 2600
Text Label 2900 2400 2    50   ~ 0
ADP_PORT_GPIO_A
$Comp
L Connector:TestPoint TP23
U 1 1 5DD797E6
P 6450 4400
F 0 "TP23" V 6450 4588 50  0000 L CNN
F 1 "TestPoint" V 6495 4588 50  0001 L CNN
F 2 "Connector_Pin:Pin_D1.0mm_L10.0mm_LooseFit" H 6650 4400 50  0001 C CNN
F 3 "~" H 6650 4400 50  0001 C CNN
	1    6450 4400
	0    1    1    0   
$EndComp
$Comp
L Connector:TestPoint TP25
U 1 1 5DD7A538
P 6450 4600
F 0 "TP25" V 6450 4788 50  0000 L CNN
F 1 "TestPoint" V 6495 4788 50  0001 L CNN
F 2 "Connector_Pin:Pin_D1.0mm_L10.0mm_LooseFit" H 6650 4600 50  0001 C CNN
F 3 "~" H 6650 4600 50  0001 C CNN
	1    6450 4600
	0    1    1    0   
$EndComp
$Comp
L Connector:TestPoint TP28
U 1 1 5DD7A767
P 6450 4900
F 0 "TP28" V 6450 5088 50  0000 L CNN
F 1 "TestPoint" V 6495 5088 50  0001 L CNN
F 2 "Connector_Pin:Pin_D1.0mm_L10.0mm_LooseFit" H 6650 4900 50  0001 C CNN
F 3 "~" H 6650 4900 50  0001 C CNN
	1    6450 4900
	0    1    1    0   
$EndComp
Connection ~ 6250 4400
Connection ~ 6100 4600
$Comp
L power:PWR_FLAG #FLG0105
U 1 1 5EB22FD9
P 8000 5350
F 0 "#FLG0105" H 8000 5425 50  0001 C CNN
F 1 "PWR_FLAG" H 8000 5523 50  0000 C CNN
F 2 "" H 8000 5350 50  0001 C CNN
F 3 "~" H 8000 5350 50  0001 C CNN
	1    8000 5350
	1    0    0    -1  
$EndComp
$Comp
L power:GNDD #PWR0105
U 1 1 5EB2316B
P 8450 5350
F 0 "#PWR0105" H 8450 5100 50  0001 C CNN
F 1 "GNDD" H 8450 5200 50  0000 C CNN
F 2 "" H 8450 5350 50  0001 C CNN
F 3 "" H 8450 5350 50  0001 C CNN
	1    8450 5350
	-1   0    0    1   
$EndComp
$Comp
L power:+5VA #PWR0106
U 1 1 5EB23C90
P 8450 5700
F 0 "#PWR0106" H 8450 5550 50  0001 C CNN
F 1 "+5VA" H 8450 5850 50  0000 C CNN
F 2 "" H 8450 5700 50  0001 C CNN
F 3 "" H 8450 5700 50  0001 C CNN
	1    8450 5700
	1    0    0    -1  
$EndComp
$Comp
L power:+3.3VP #PWR0107
U 1 1 5EB24850
P 8450 6050
F 0 "#PWR0107" H 8600 6000 50  0001 C CNN
F 1 "+3.3VP" H 8450 6200 50  0000 C CNN
F 2 "" H 8450 6050 50  0001 C CNN
F 3 "" H 8450 6050 50  0001 C CNN
	1    8450 6050
	1    0    0    -1  
$EndComp
$Comp
L power:PWR_FLAG #FLG0106
U 1 1 5EB250BA
P 8000 5700
F 0 "#FLG0106" H 8000 5775 50  0001 C CNN
F 1 "PWR_FLAG" H 8000 5873 50  0000 C CNN
F 2 "" H 8000 5700 50  0001 C CNN
F 3 "~" H 8000 5700 50  0001 C CNN
	1    8000 5700
	1    0    0    -1  
$EndComp
$Comp
L power:PWR_FLAG #FLG0107
U 1 1 5EB254AE
P 8000 6050
F 0 "#FLG0107" H 8000 6125 50  0001 C CNN
F 1 "PWR_FLAG" H 8000 6223 50  0000 C CNN
F 2 "" H 8000 6050 50  0001 C CNN
F 3 "~" H 8000 6050 50  0001 C CNN
	1    8000 6050
	1    0    0    -1  
$EndComp
Wire Wire Line
	8450 5350 8450 5400
Wire Wire Line
	8450 5400 8000 5400
Wire Wire Line
	8000 5400 8000 5350
Wire Wire Line
	8000 5700 8000 5750
Wire Wire Line
	8000 5750 8450 5750
Wire Wire Line
	8450 5750 8450 5700
Wire Wire Line
	8000 6050 8000 6100
Wire Wire Line
	8000 6100 8450 6100
Wire Wire Line
	8450 6100 8450 6050
$Comp
L Mechanical:MountingHole H?
U 1 1 5EB8C124
P 5300 6350
AR Path="/5EB8C124" Ref="H?"  Part="1" 
AR Path="/5D3B8885/5EB8C124" Ref="H5"  Part="1" 
F 0 "H5" H 5400 6350 50  0000 L CNN
F 1 "MountingHole" H 5400 6305 50  0001 L CNN
F 2 "MountingHole:MountingHole_2.2mm_M2_Pad_Via" H 5300 6350 50  0001 C CNN
F 3 "~" H 5300 6350 50  0001 C CNN
	1    5300 6350
	1    0    0    -1  
$EndComp
$Comp
L Mechanical:MountingHole H?
U 1 1 5EB8C130
P 5700 6700
AR Path="/5EB8C130" Ref="H?"  Part="1" 
AR Path="/5D3B8885/5EB8C130" Ref="H8"  Part="1" 
F 0 "H8" H 5800 6700 50  0000 L CNN
F 1 "MountingHole" H 5800 6655 50  0001 L CNN
F 2 "MountingHole:MountingHole_2.2mm_M2_Pad_Via" H 5700 6700 50  0001 C CNN
F 3 "~" H 5700 6700 50  0001 C CNN
	1    5700 6700
	1    0    0    -1  
$EndComp
Wire Wire Line
	6250 4400 6450 4400
Wire Wire Line
	6100 4600 6450 4600
Wire Wire Line
	5950 4900 6450 4900
$EndSCHEMATC
